Manipulación y Visualización de Datos
…
## Función rename
usamos esta funcion para renombrar visualmente los campos de los datos, el resto
de los campos no evaluados siguen con el mismo nombre

```r
library(dplyr)
rename(storms, tormente = name, viento = wind, presion = pressure, Anio = year)
```

```
## # A tibble: 10,010 x 13
##    tormente  Anio month   day  hour   lat  long status   category viento presion
##    <chr>    <dbl> <dbl> <int> <dbl> <dbl> <dbl> <chr>    <ord>     <int>   <int>
##  1 Amy       1975     6    27     0  27.5 -79   tropica~ -1           25    1013
##  2 Amy       1975     6    27     6  28.5 -79   tropica~ -1           25    1013
##  3 Amy       1975     6    27    12  29.5 -79   tropica~ -1           25    1013
##  4 Amy       1975     6    27    18  30.5 -79   tropica~ -1           25    1013
##  5 Amy       1975     6    28     0  31.5 -78.8 tropica~ -1           25    1012
##  6 Amy       1975     6    28     6  32.4 -78.7 tropica~ -1           25    1012
##  7 Amy       1975     6    28    12  33.3 -78   tropica~ -1           25    1011
##  8 Amy       1975     6    28    18  34   -77   tropica~ -1           30    1006
##  9 Amy       1975     6    29     0  34.4 -75.8 tropica~ 0            35    1004
## 10 Amy       1975     6    29     6  34   -74.8 tropica~ 0            40    1002
## # ... with 10,000 more rows, and 2 more variables: ts_diameter <dbl>,
## #   hu_diameter <dbl>
```

## Funcion mutate
esta funcion nos permite crear nuevas variables partiendo de otras

```r
library(dplyr)
mutate(storms, ratio = pressure / wind)
```

```
## # A tibble: 10,010 x 14
##    name   year month   day  hour   lat  long status      category  wind pressure
##    <chr> <dbl> <dbl> <int> <dbl> <dbl> <dbl> <chr>       <ord>    <int>    <int>
##  1 Amy    1975     6    27     0  27.5 -79   tropical d~ -1          25     1013
##  2 Amy    1975     6    27     6  28.5 -79   tropical d~ -1          25     1013
##  3 Amy    1975     6    27    12  29.5 -79   tropical d~ -1          25     1013
##  4 Amy    1975     6    27    18  30.5 -79   tropical d~ -1          25     1013
##  5 Amy    1975     6    28     0  31.5 -78.8 tropical d~ -1          25     1012
##  6 Amy    1975     6    28     6  32.4 -78.7 tropical d~ -1          25     1012
##  7 Amy    1975     6    28    12  33.3 -78   tropical d~ -1          25     1011
##  8 Amy    1975     6    28    18  34   -77   tropical d~ -1          30     1006
##  9 Amy    1975     6    29     0  34.4 -75.8 tropical s~ 0           35     1004
## 10 Amy    1975     6    29     6  34   -74.8 tropical s~ 0           40     1002
## # ... with 10,000 more rows, and 3 more variables: ts_diameter <dbl>,
## #   hu_diameter <dbl>, ratio <dbl>
```
…
# Funcion group_by

```r
library(dplyr)
group_by(storms, name)
```

```
## # A tibble: 10,010 x 13
## # Groups:   name [198]
##    name   year month   day  hour   lat  long status      category  wind pressure
##    <chr> <dbl> <dbl> <int> <dbl> <dbl> <dbl> <chr>       <ord>    <int>    <int>
##  1 Amy    1975     6    27     0  27.5 -79   tropical d~ -1          25     1013
##  2 Amy    1975     6    27     6  28.5 -79   tropical d~ -1          25     1013
##  3 Amy    1975     6    27    12  29.5 -79   tropical d~ -1          25     1013
##  4 Amy    1975     6    27    18  30.5 -79   tropical d~ -1          25     1013
##  5 Amy    1975     6    28     0  31.5 -78.8 tropical d~ -1          25     1012
##  6 Amy    1975     6    28     6  32.4 -78.7 tropical d~ -1          25     1012
##  7 Amy    1975     6    28    12  33.3 -78   tropical d~ -1          25     1011
##  8 Amy    1975     6    28    18  34   -77   tropical d~ -1          30     1006
##  9 Amy    1975     6    29     0  34.4 -75.8 tropical s~ 0           35     1004
## 10 Amy    1975     6    29     6  34   -74.8 tropical s~ 0           40     1002
## # ... with 10,000 more rows, and 2 more variables: ts_diameter <dbl>,
## #   hu_diameter <dbl>
```

```r
library(dplyr)
storms %>% group_by(name) %>% 
  summarise(media = mean(wind), suma = sum(wind), n = n())
```

```
## # A tibble: 198 x 4
##    name     media  suma     n
##    <chr>    <dbl> <int> <int>
##  1 AL011993  27.5   220     8
##  2 AL012000  25     100     4
##  3 AL021992  29     145     5
##  4 AL021994  24.2   145     6
##  5 AL021999  28.8   115     4
##  6 AL022000  29.2   350    12
##  7 AL022001  25     125     5
##  8 AL022003  30     120     4
##  9 AL022006  38     190     5
## 10 AL031987  21.2   680    32
## # ... with 188 more rows
```
…
